{
"count": 5915,
"page": 1,
"totalPages": 986,
"nextPage": 2,
"previousPage": 0,
"showingFrom": 1,
"showingTo": 6,
"items": [
  {
    "id": 40526,
    "tipo": "Notícia",
    "titulo": "IBGE participa da Caravana Federativa Pará",
    "introducao": "O IBGE está pronto para participar da 11ª edição da Caravana Federativa, iniciativa do Governo Federal por meio das secretarias de Assuntos Federativos (Seaf) e de Relações Institucionais (SRI). No Pará, a Caravana Federativa será nos dias 4 e 5 de...",
    "data_publicacao": "01/07/2024 10:00:00",
    "produto_id": 0,
    "produtos": "",
    "editorias": "ibge",
    "imagens": "{\"image_intro\":\"images\\/agenciadenoticias\\/ibge\\/2024_06\\/Caravana-Para-THUMB.jpg\",\"float_intro\":\"\",\"image_intro_alt\":\"\",\"image_intro_caption\":\"\",\"image_fulltext\":\"images\\/agenciadenoticias\\/ibge\\/2024_06\\/Caravana-Para-HOME.jpg\",\"float_fulltext\":\"\",\"image_fulltext_alt\":\"\",\"image_fulltext_caption\":\"\"}",
    "produtos_relacionados": "",
    "destaque": true,
    "link": "http://agenciadenoticias.ibge.gov.br/agencia-noticias/2012-agencia-de-noticias/noticias/40526-ibge-participa-da-caravana-federativa-para.html"
  },
  {
    "id": 40531,
    "tipo": "Notícia",
    "titulo": "IBGE disponibiliza Agenda de 1° a 7 de julho",
    "introducao": "Agenda IBGE traz a programação do instituto para a semana - Foto: Bel Corção/Brasil com S Divulgada hoje (1°), às 9h, a Agenda IBGE traz as programações do Instituto para a próxima semana. A Agenda traz as divulgações, as reuniões internas e externas e...",
    "data_publicacao": "01/07/2024 09:00:00",
    "produto_id": 0,
    "produtos": "",
    "editorias": "ibge",
    "imagens": "{\"image_intro\":\"images\\/agenciadenoticias\\/ibge\\/2024_01\\/Agenda-IBGE_THUMB.jpg\",\"float_intro\":\"\",\"image_intro_alt\":\"\",\"image_intro_caption\":\"\",\"image_fulltext\":\"images\\/agenciadenoticias\\/ibge\\/2024_01\\/Agenda-IBGE_HOME.jpg\",\"float_fulltext\":\"\",\"image_fulltext_alt\":\"\",\"image_fulltext_caption\":\"\"}",
    "produtos_relacionados": "",
    "destaque": true,
    "link": "http://agenciadenoticias.ibge.gov.br/agencia-noticias/2012-agencia-de-noticias/noticias/40531-ibge-disponibiliza-agenda-de-1-a-7-de-julho.html"
  },
  {
    "id": 40527,
    "tipo": "Notícia",
    "titulo": "Inscrições para Conferência da Era Digital seguem abertas até o dia 20 de julho",
    "introducao": "As inscrições para a Conferência Nacional dos Agentes Produtores e Usuários de Dados sobre o tema da Soberania Nacional em Geociências, Estatísticas e Dados - os Riscos e Oportunidades da Era Digital seguem abertas até o dia 20 de julho. O evento...",
    "data_publicacao": "28/06/2024 04:49:21",
    "produto_id": 0,
    "produtos": "",
    "editorias": "ibge",
    "imagens": "{\"image_intro\":\"images\\/agenciadenoticias\\/ibge\\/2024_06\\/Conferencia_Inscricao_THUMB.jpg\",\"float_intro\":\"\",\"image_intro_alt\":\"\",\"image_intro_caption\":\"\",\"image_fulltext\":\"images\\/agenciadenoticias\\/ibge\\/2024_06\\/Conferencia_Inscricao_HOME.jpg\",\"float_fulltext\":\"\",\"image_fulltext_alt\":\"\",\"image_fulltext_caption\":\"\"}",
    "produtos_relacionados": "",
    "destaque": true,
    "link": "http://agenciadenoticias.ibge.gov.br/agencia-noticias/2012-agencia-de-noticias/noticias/40527-inscricoes-para-conferencia-da-era-digital-seguem-abertas-ate-o-dia-20-de-julho.html"
  },
  {
    "id": 40525,
    "tipo": "Notícia",
    "titulo": "Presidente da SAP América Latina e Caribe é uma das palestrantes da Conferência da Era Digital",
    "introducao": "A presidente da SAP América Latina e Caribe, Cristina Palmaka, será uma das palestrantes da Conferência Nacional dos Agentes Produtores e Usuários de Dados sobre o tema da Soberania Nacional em Geociências, Estatísticas e Dados - os Riscos e...",
    "data_publicacao": "28/06/2024 12:29:34",
    "produto_id": 0,
    "produtos": "",
    "editorias": "ibge",
    "imagens": "{\"image_intro\":\"images\\/agenciadenoticias\\/ibge\\/2024_06\\/Conferncia_Cristina_THUMB-2.jpg\",\"float_intro\":\"\",\"image_intro_alt\":\"\",\"image_intro_caption\":\"\",\"image_fulltext\":\"images\\/agenciadenoticias\\/ibge\\/2024_06\\/Conferncia_Cristina_HOME-2.jpg\",\"float_fulltext\":\"\",\"image_fulltext_alt\":\"\",\"image_fulltext_caption\":\"\"}",
    "produtos_relacionados": "",
    "destaque": true,
    "link": "http://agenciadenoticias.ibge.gov.br/agencia-noticias/2012-agencia-de-noticias/noticias/40525-presidente-da-sap-america-latina-e-caribe-e-uma-das-palestrantes-da-conferencia-da-era-digital.html"
  },
  {
    "id": 40507,
    "tipo": "Notícia",
    "titulo": "IBGE lança Mapa Político do Brasil com atualizações do Censo 2022",
    "introducao": "Por ter dimensões menores, o Mapa Político do Brasil na escala 1:5.000.000 representa as sedes dos municípios selecionados para a escala - Foto: Arte sobre mockup O IBGE disponibiliza a partir de hoje, 28, a versão 2023 dos Mapas Políticos do Brasil nas...",
    "data_publicacao": "28/06/2024 10:00:00",
    "produto_id": 0,
    "produtos": "",
    "editorias": "geociencias",
    "imagens": "{\"image_intro\":\"images\\/agenciadenoticias\\/geociencias\\/2024_06\\/mapa-poltico_THUMB.jpg\",\"float_intro\":\"\",\"image_intro_alt\":\"\",\"image_intro_caption\":\"\",\"image_fulltext\":\"images\\/agenciadenoticias\\/geociencias\\/2024_06\\/mapa-poltico_HOME.jpg\",\"float_fulltext\":\"\",\"image_fulltext_alt\":\"\",\"image_fulltext_caption\":\"\"}",
    "produtos_relacionados": "",
    "destaque": true,
    "link": "http://agenciadenoticias.ibge.gov.br/agencia-noticias/2012-agencia-de-noticias/noticias/40507-ibge-lanca-mapa-politico-do-brasil-com-atualizacoes-do-censo-2022.html"
  },
  {
    "id": 40519,
    "tipo": "Notícia",
    "titulo": "IBGE define bioma predominante em cada município brasileiro para fins estatísticos",
    "introducao": "A Mata Atlântica é o bioma predominante em quase metade (49,2%) dos municípios brasileiros - Foto: Tomaz Silva/Agência Brasil Embora a Amazônia seja o bioma com maior área no território nacional, a Mata Atlântica é predominante no maior número de...",
    "data_publicacao": "28/06/2024 10:00:00",
    "produto_id": 0,
    "produtos": "",
    "editorias": "geociencias",
    "imagens": "{\"image_intro\":\"images\\/agenciadenoticias\\/geociencias\\/2024_06\\/Bioma_THUMB_Tomaz-Silva-Agncia-Brasil.jpg\",\"float_intro\":\"\",\"image_intro_alt\":\"\",\"image_intro_caption\":\"\",\"image_fulltext\":\"images\\/agenciadenoticias\\/geociencias\\/2024_06\\/Bioma_HOME_Tomaz-Silva-Agncia-Brasil.jpg\",\"float_fulltext\":\"\",\"image_fulltext_alt\":\"\",\"image_fulltext_caption\":\"\"}",
    "produtos_relacionados": "",
    "destaque": true,
    "link": "http://agenciadenoticias.ibge.gov.br/agencia-noticias/2012-agencia-de-noticias/noticias/40519-ibge-define-bioma-predominante-em-cada-municipio-brasileiro-para-fins-estatisticos.html"
  }
]
}